…
# Now join with stop words
tidy_mlk <- mlk_text %>%
  anti_join(stop_words)
```

    ## Joining, by = "word"

``` r
tidy_mlk %>%
  count(word, sort = TRUE) 
```

    ## # A tibble: 214 × 2
    ##        word     n
    ##       <chr> <int>
    ## 1   freedom    13
    ## 2      ring    12
    ## 3     dream    11
    ## 4       day     9
    ## 5     negro     8
    ## 6      free     5
    ## 7     white     5
    ## 8     faith     4
    ## 9   hundred     4
    ## 10 mountain     4
    ## # ... with 204 more rows
…
