…
#### Another Challenge

**What was the heaviest animal measured in each year? Return the columns year, genus, species_id, and weight.**

Okay, break this out into pieces...how do we get the heaviest animal in each year? 


```
## Source: local data frame [27 x 3]
## Groups: year [26]
## 
##     year species_id weight
##    <int>     <fctr>  <int>
## 1   1977         DS    149
## 2   1978         NL    232
## 3   1978         NL    232
## 4   1979         NL    274
## 5   1980         NL    243
## 6   1981         NL    264
## 7   1982         NL    252
## 8   1983         NL    256
## 9   1984         NL    259
## 10  1985         NL    225
## # ... with 17 more rows
```

### Group_by and Summarize


```
## Source: local data frame [48 x 3]
## Groups: sex [?]
## 
##       sex species_id mean_weight
##    <fctr>     <fctr>       <dbl>
## 1       F         BA     9.16129
## 2       F         DM    41.60968
## 3       F         DO    48.53125
## 4       F         DS   117.74955
## 5       F         NL   154.28221
## 6       F         OL    31.06582
## 7       F         OT    24.83090
## 8       F         OX    21.00000
## 9       F         PB    30.21088
## 10      F         PE    22.82218
## # ... with 38 more rows
```
…
Following this lesson:

**https://ismayc.github.io/moderndiver-book/5-manip.html#joining-data-frames**


```
## [1] 336776     19
```

```
## [1] 336776     20
```

```
## # A tibble: 329,174 × 26
##     year month   day dep_time sched_dep_time dep_delay arr_time
##    <int> <int> <int>    <int>          <int>     <dbl>    <int>
## 1   2013     1     1      517            515         2      830
## 2   2013     1     1      533            529         4      850
## 3   2013     1     1      542            540         2      923
## 4   2013     1     1      554            600        -6      812
## 5   2013     1     1      554            558        -4      740
## 6   2013     1     1      555            600        -5      913
## 7   2013     1     1      557            600        -3      709
## 8   2013     1     1      557            600        -3      838
## 9   2013     1     1      558            600        -2      753
## 10  2013     1     1      558            600        -2      849
## # ... with 329,164 more rows, and 19 more variables: sched_arr_time <int>,
## #   arr_delay <dbl>, carrier <chr>, flight <int>, tailnum <chr>,
## #   origin <chr>, dest <chr>, air_time <dbl>, distance <dbl>, hour <dbl>,
## #   minute <dbl>, time_hour <dttm>, name <chr>, lat <dbl>, lon <dbl>,
## #   alt <int>, tz <dbl>, dst <chr>, tzone <chr>
```
